{
  "type": "minecraft:crafting_shaped",
  "category": "misc",
  "key": {
    "#": {
      "item": "lost_aether_content:gale_stone"
    }
  },
  "pattern": [
    "###",
    "###"
  ],
  "result": {
    "count": 6,
    "item": "lost_aether_content:gale_wall"
  },
  "show_notification": true
}