{
	"credit": "Made with Blockbench",
	"parent": "block/block",
	"loader": "forge:composite",
	"children": {
		"inner": {
			"textures": {
				"particle": "aether:entity/mobs/swet/swet_blue",
				"swet": "aether:entity/mobs/swet/swet_blue"
			},
			"elements": [
				{
					"name": "center",
					"from": [2, 2, 2],
					"to": [14, 14, 14],
					"faces": {
						"north": {"uv": [1.5, 11, 3, 14], "texture": "#swet"},
						"east": {"uv": [0, 11, 1.5, 14], "texture": "#swet"},
						"south": {"uv": [4.5, 11, 6, 14], "texture": "#swet"},
						"west": {"uv": [3, 11, 4.5, 14], "texture": "#swet"},
						"up": {"uv": [1.5, 8, 3, 11], "texture": "#swet"},
						"down": {"uv": [3, 8, 4.5, 11], "texture": "#swet"}
					}
				},
				{
					"name": "left eye",
					"from": [1.5, 8, 1.5],
					"to": [5.5, 12, 5.5],
					"faces": {
						"north": {"uv": [8.5, 3, 9, 4], "texture": "#swet"},
						"east": {"uv": [8, 3, 8.5, 4], "texture": "#swet"},
						"south": {"uv": [9.5, 3, 10, 4], "texture": "#swet"},
						"west": {"uv": [9, 3, 9.5, 4], "texture": "#swet"},
						"up": {"uv": [8.5, 2, 9, 3], "texture": "#swet"},
						"down": {"uv": [9, 2, 9.5, 3], "texture": "#swet"}
					}
				},
				{
					"name": "right eye",
					"from": [10.5, 8, 1.5],
					"to": [14.5, 12, 5.5],
					"faces": {
						"north": {"uv": [8.5, 1, 9, 2], "texture": "#swet"},
						"east": {"uv": [8, 1, 8.5, 2], "texture": "#swet"},
						"south": {"uv": [9.5, 1, 10, 2], "texture": "#swet"},
						"west": {"uv": [9, 1, 9.5, 2], "texture": "#swet"},
						"up": {"uv": [8.5, 0, 9, 1], "texture": "#swet"},
						"down": {"uv": [9, 0, 9.5, 1], "texture": "#swet"}
					}
				},
				{
					"name": "mouth",
					"from": [5.75, 4, 1.5],
					"to": [7.75, 6, 5.5],
					"faces": {
						"north": {"uv": [8.25, 4.5, 8.5, 5], "texture": "#swet"},
						"east": {"uv": [8, 4.5, 8.25, 5], "texture": "#swet"},
						"south": {"uv": [8.75, 4.5, 9, 5], "texture": "#swet"},
						"west": {"uv": [8.5, 4.5, 8.75, 5], "texture": "#swet"},
						"up": {"uv": [8.25, 4, 8.5, 4.5], "texture": "#swet"},
						"down": {"uv": [8.5, 4, 8.75, 4.5], "texture": "#swet"}
					}
				}
			],
			"render_type": "minecraft:solid"
		},
		"outer": {
			"textures": {
				"particle": "aether:entity/mobs/swet/swet_blue",
				"swet": "aether:entity/mobs/swet/swet_blue"
			},
			"elements": [
				{
					"name": "gel",
					"from": [1, 1, 1],
					"to": [15, 15, 15],
					"faces": {
						"north": {"uv": [2, 4, 4, 8], "texture": "#swet"},
						"east": {"uv": [0, 4, 2, 8], "texture": "#swet"},
						"south": {"uv": [6, 4, 8, 8], "texture": "#swet"},
						"west": {"uv": [4, 4, 6, 8], "texture": "#swet"},
						"up": {"uv": [2, 0, 4, 4], "texture": "#swet"},
						"down": {"uv": [4, 0, 6, 4], "texture": "#swet"}
					}
				}
			],
			"render_type": "minecraft:translucent"
		}
	},
	"display": {
		"thirdperson_righthand": {
			"rotation": [75, 45, 0],
			"translation": [0, 2.5, 0],
			"scale": [0.375, 0.375, 0.375]
		},
		"head": {
			"scale": [1.21, 1.21, 1.21]
		}
	}
}