{
  "parent": "minecraft:block/inner_stairs",
  "textures": {
    "bottom": "lost_aether_content:block/dungeon/gale_stone_top",
    "side": "lost_aether_content:block/dungeon/gale_stone",
    "top": "lost_aether_content:block/dungeon/gale_stone_top"
  }
}