{
  "parent": "minecraft:block/block",
  "elements": [
    {
      "faces": {
        "down": {
          "cullface": "down",
          "texture": "#bottom"
        },
        "east": {
          "cullface": "east",
          "texture": "#side"
        },
        "north": {
          "cullface": "north",
          "texture": "#side"
        },
        "south": {
          "cullface": "south",
          "texture": "#side"
        },
        "up": {
          "cullface": "up",
          "texture": "#top"
        },
        "west": {
          "cullface": "west",
          "texture": "#side"
        }
      },
      "from": [
        0,
        0,
        0
      ],
      "to": [
        16,
        16,
        16
      ]
    },
    {
      "faces": {
        "east": {
          "cullface": "east",
          "forge_data": {
            "block_light": 15,
            "sky_light": 15
          },
          "texture": "#side_glow"
        },
        "north": {
          "cullface": "north",
          "forge_data": {
            "block_light": 15,
            "sky_light": 15
          },
          "texture": "#side_glow"
        },
        "south": {
          "cullface": "south",
          "forge_data": {
            "block_light": 15,
            "sky_light": 15
          },
          "texture": "#side_glow"
        },
        "up": {
          "cullface": "up",
          "forge_data": {
            "block_light": 15,
            "sky_light": 15
          },
          "texture": "#top_glow"
        },
        "west": {
          "cullface": "west",
          "forge_data": {
            "block_light": 15,
            "sky_light": 15
          },
          "texture": "#side_glow"
        }
      },
      "from": [
        0,
        0,
        0
      ],
      "to": [
        16,
        16,
        16
      ]
    }
  ],
  "render_type": "minecraft:cutout",
  "textures": {
    "bottom": "lost_aether_content:block/dungeon/gale_stone_top",
    "particle": "lost_aether_content:block/dungeon/songstone_side",
    "side": "lost_aether_content:block/dungeon/songstone_side",
    "side_glow": "lost_aether_content:block/dungeon/songstone_side_glow",
    "top": "lost_aether_content:block/dungeon/songstone_top",
    "top_glow": "lost_aether_content:block/dungeon/songstone_top_glow"
  }
}