{
  "parent": "minecraft:recipes/root",
  "criteria": {
    "has_gale_stone": {
      "conditions": {
        "items": [
          {
            "items": [
              "lost_aether_content:gale_stone"
            ]
          }
        ]
      },
      "trigger": "minecraft:inventory_changed"
    },
    "has_the_recipe": {
      "conditions": {
        "recipe": "lost_aether_content:gale_wall_from_gale_stone_stonecutting"
      },
      "trigger": "minecraft:recipe_unlocked"
    }
  },
  "requirements": [
    [
      "has_gale_stone",
      "has_the_recipe"
    ]
  ],
  "rewards": {
    "recipes": [
      "lost_aether_content:gale_wall_from_gale_stone_stonecutting"
    ]
  },
  "sends_telemetry_event": false
}